{
	"passanger_registration_otp": "Your account verification code (otp) {$otp_number}",
	"passanger_change_mobile_otp": "Dear {$user_name}, To change your mobile number please use this OTP {$otp_number}",
	"passanger_reset_password_otp": "Dear {$user_name}, Here is your verification code for reset password {$code}",
	"ride_booked_operator": "Your ride has been booked successfully. Ride id #{$ride_id}",
	"ride_otp_sms": "Your CRN {$ride_id} one time password is {$otp_number}",
	"ride_otp_for_payment": "Hi {$user_name}, Your OTP for payment confirmation is {$otp_number}.",
	"cab_arrived": "Cab is arrived CRN : {$ride_id}",
	"sharing_ride": "{$user_name} shared ride, You can track here {$trackLink}",
	"driver_registration_otp": "Your account verification code (otp) {$otp_number}",
	"wallet_money_credit": "Dear {$user_name}, your wallet is credited with {$amt}. Your updated wallet balance is {$balance_amt}",
	"emergency_contact_update": "Dear {$em_user_name}, {$user_name} added you as his/her emergency contact. Your verification OTP number is {$otp_number}",
	"emergency_alert": "Dear {$em_user_name}, {$user_name} sent alert notification to you for his/her emergency, For more details please check email."
}