[2019-03-26 10:50:07 AM][ADMINLOGIN][Logged in][SUCCESS][Admin Name:admin][IP:127.0.0.1],
[2019-03-26 11:54:30 AM][ADMINLOGIN][Logged in][SUCCESS][Admin Name:admin][IP:127.0.0.1],
[2019-03-26 01:01:21 PM][ADMINLOGIN][Logged out][SUCCESS][Admin Name:][IP:127.0.0.1],
[2019-03-26 01:08:06 PM][ADMINLOGIN][Logged in][SUCCESS][Admin Name:admin][IP:127.0.0.1],
[2019-03-26 01:35:30 PM][ADMINLOGIN][Logged in][SUCCESS][Admin Name:admin][IP:127.0.0.1],
[2019-03-26 03:58:12 PM][ADMINLOGIN][Logged in][SUCCESS][Admin Name:admin][IP:127.0.0.1],
[2019-03-26 04:58:47 PM][SUBADMIN][Login password modified][SUCCESS][Admin Name:admin][IP:127.0.0.1],
[2019-03-26 04:59:09 PM][ADMINLOGIN][Logged in][FAILED][Admin Name:],[ERROR:Invalid Login Details][IP:127.0.0.1],
[2019-03-26 04:59:41 PM][ADMINLOGIN][Logged in][FAILED][Admin Name:],[ERROR:Invalid Login Details][IP:127.0.0.1],
[2019-03-26 05:00:34 PM][SUBADMIN][Login password modified][SUCCESS][Admin Name:admin][IP:127.0.0.1],
[2019-03-26 05:01:39 PM][ADMINLOGIN][Logged in][FAILED][Admin Name:],[ERROR:Invalid Login Details][IP:127.0.0.1],
[2019-03-26 05:03:27 PM][ADMINLOGIN][Logged in][SUCCESS][Admin Name:RKAT][IP:127.0.0.1],
[2019-03-26 05:38:24 PM][ADMINLOGIN][Logged in][SUCCESS][Admin Name:admin][IP:127.0.0.1],
[2019-03-26 07:04:39 PM][ADMINLOGIN][Logged out][SUCCESS][Admin Name:][IP:127.0.0.1],
