[2019-04-23 04:28:48 PM][ADMINLOGIN][Logged in][SUCCESS][Admin Name:admin][IP:127.0.0.1],
[2019-04-23 04:44:42 PM][ADMINLOGIN][Logged out][SUCCESS][Admin Name:][IP:127.0.0.1],
[2019-04-23 04:44:48 PM][ADMINLOGIN][Logged in][FAILED][Admin Name:],[ERROR:Invalid Login Details][IP:127.0.0.1],
[2019-04-23 04:56:43 PM][ADMINLOGIN][Logged out][SUCCESS][Admin Name:][IP:127.0.0.1],
[2019-04-23 04:56:48 PM][ADMINLOGIN][Logged in][SUCCESS][Admin Name:admin][IP:127.0.0.1],
[2019-04-23 04:59:51 PM][ADMINLOGIN][Admin settings modified][SUCCESS][Admin Name:admin][IP:127.0.0.1],
[2019-04-23 05:32:07 PM][ADMINLOGIN][Admin settings modified][SUCCESS][Admin Name:admin][IP:127.0.0.1],
[2019-04-23 06:05:38 PM][ADMINLOGIN][Logged out][SUCCESS][Admin Name:][IP:127.0.0.1],
[2019-04-23 06:10:40 PM][ADMINLOGIN][Logged in][SUCCESS][Admin Name:admin][IP:127.0.0.1],
[2019-04-23 06:11:43 PM][ADMINLOGIN][Logged out][SUCCESS][Admin Name:][IP:127.0.0.1],
[2019-04-23 06:11:47 PM][ADMINLOGIN][Logged in][SUCCESS][Admin Name:admin][IP:127.0.0.1],
[2019-04-23 06:15:16 PM][ADMINLOGIN][Admin settings modified][SUCCESS][Admin Name:admin][IP:127.0.0.1],
[2019-04-23 06:36:39 PM][BANNER][Banner added][SUCCESS][Admin Name:admin][IP:127.0.0.1],
[2019-04-23 06:37:21 PM][BANNER][Banner updated][SUCCESS][Admin Name:admin][IP:127.0.0.1],
