[2019-03-29 09:49:23 AM][ADMINLOGIN][Logged in][SUCCESS][Admin Name:admin][IP:127.0.0.1],
[2019-03-29 09:56:20 AM][ADMINLOGIN][Logged in][SUCCESS][Admin Name:admin][IP:127.0.0.1],
[2019-03-29 09:57:18 AM][ADMINLOGIN][Smtp settings modified][SUCCESS][Admin Name:admin][IP:127.0.0.1],
[2019-03-29 09:57:51 AM][ADMINLOGIN][Smtp settings modified][SUCCESS][Admin Name:admin][IP:127.0.0.1],
