[2019-09-18 12:50:35 PM][ADMINLOGIN][Logged in][SUCCESS][Admin Name:admin][IP:122.164.254.251],
[2019-09-18 12:51:51 PM][ADMINLOGIN][Logged out][SUCCESS][Admin Name:][IP:122.164.254.251],
[2019-09-18 03:16:00 PM][ADMINLOGIN][Logged in][SUCCESS][Admin Name:admin][IP:121.242.232.133],
[2019-09-18 05:39:33 PM][ADMINLOGIN][Logged out][SUCCESS][Admin Name:][IP:121.242.232.133],
