[2019-10-01 11:09:15 AM][ADMINLOGIN][Logged in][SUCCESS][Admin Name:admin][IP:182.65.179.17],
[2019-10-01 11:36:42 AM][OPERATORS][Operator added][SUCCESS][Admin Name:admin][IP:182.65.179.17],
[2019-10-01 03:00:09 PM][ADMINLOGIN][Logged in][SUCCESS][Admin Name:admin][IP:182.65.179.17],
[2019-10-01 05:10:05 PM][ADMINLOGIN][Logged in][SUCCESS][Admin Name:admin][IP:182.65.179.17],
[2019-10-01 06:12:31 PM][ADMINLOGIN][Logged in][SUCCESS][Admin Name:admin][IP:182.65.179.17],
