[2019-05-31 10:50:17 AM][ADMINLOGIN][Logged in][FAILED][Admin Name:],[ERROR:Invalid Login Details][IP:182.55.159.205],
[2019-05-31 10:50:25 AM][ADMINLOGIN][Logged in][SUCCESS][Admin Name:admin][IP:182.55.159.205],
[2019-05-31 11:41:10 AM][ADMINLOGIN][Logged in][SUCCESS][Admin Name:admin][IP:122.164.168.223],
[2019-05-31 04:23:52 PM][ADMINLOGIN][Logged in][SUCCESS][Admin Name:admin][IP:122.164.168.223],
[2019-05-31 07:57:22 PM][ADMINLOGIN][Logged in][SUCCESS][Admin Name:admin][IP:182.55.159.205],
[2019-05-31 08:07:57 PM][ADMINLOGIN][Logged in][SUCCESS][Admin Name:admin][IP:117.209.196.217],
