[2019-03-27 09:43:30 AM][ADMINLOGIN][Logged in][FAILED][Admin Name:],[ERROR:Invalid Login Details][IP:127.0.0.1],
[2019-03-27 09:44:24 AM][ADMINLOGIN][Logged in][FAILED][Admin Name:],[ERROR:Invalid Login Details][IP:127.0.0.1],
[2019-03-27 10:01:07 AM][ADMINLOGIN][Logged in][SUCCESS][Admin Name:admin][IP:127.0.0.1],
[2019-03-27 12:17:49 PM][ADMINLOGIN][Logged in][SUCCESS][Admin Name:admin][IP:127.0.0.1],
[2019-03-27 12:19:48 PM][ADMINLOGIN][Logged in][SUCCESS][Admin Name:admin][IP:127.0.0.1],
[2019-03-27 04:02:06 PM][ADMINLOGIN][Logged in][SUCCESS][Admin Name:admin][IP:127.0.0.1],
