<?xml version="1.0" encoding="UTF-8"?>
<!DOCTYPE svg PUBLIC "-//W3C//DTD SVG 1.1//EN" "http://www.w3.org/Graphics/SVG/1.1/DTD/svg11.dtd">
<!-- Creator: CorelDRAW X6 -->
<svg xmlns="http://www.w3.org/2000/svg" xml:space="preserve" width="0.723165in" height="0.666669in" version="1.1" style="shape-rendering:geometricPrecision; text-rendering:geometricPrecision; image-rendering:optimizeQuality; fill-rule:evenodd; clip-rule:evenodd"
viewBox="0 0 723 667"
 xmlns:xlink="http://www.w3.org/1999/xlink">
 <defs>
  <style type="text/css">
   <![CDATA[
    .fil2 {fill:#4BB9EC}
    .fil4 {fill:#5C546A}
    .fil7 {fill:#7E5C62}
    .fil1 {fill:#996459}
    .fil5 {fill:#E3001E}
    .fil0 {fill:#E6BE94}
    .fil3 {fill:#FF4F19}
    .fil6 {fill:#FFEBB7}
   ]]>
  </style>
 </defs>
 <g id="Layer_x0020_1">
  <metadata id="CorelCorpID_0Corel-Layer"/>
  <g id="_324578648">
   <polygon class="fil0" points="689,655 34,655 34,350 169,350 361,158 553,350 689,350 "/>
   <rect class="fil1" x="293" y="520" width="136" height="136"/>
   <path class="fil2" d="M426 475l-130 0c-2,0 -3,1 -3,3l0 42 136 0 0 -42c0,-2 -1,-3 -3,-3z"/>
   <path class="fil3" d="M466 68l18 -28c2,-3 3,-8 1,-12 -2,-4 -6,-6 -10,-6l-113 0c-6,0 -11,5 -11,11l0 68c0,6 5,11 11,11l113 0c4,0 8,-2 10,-6 2,-4 2,-8 -1,-12l-18 -28z"/>
   <path class="fil4" d="M362 169c-6,0 -11,-5 -11,-11l0 -147c0,-6 5,-11 11,-11 6,0 11,5 11,11l0 147c0,6 -5,11 -11,11z"/>
   <path class="fil3" d="M407 210c2,-4 6,-7 10,-7l215 0c4,0 7,2 10,5l79 124c2,3 2,8 0,12 -2,4 -6,6 -10,6l-169 0c-3,0 -6,-1 -8,-3l-124 -124c-3,-3 -4,-8 -2,-12z"/>
   <path class="fil3" d="M316 210c-2,-4 -6,-7 -10,-7l-215 0c-4,0 -7,2 -10,5l-79 124c-2,3 -2,8 0,12 2,4 6,6 10,6l169 0c3,0 6,-1 8,-3l124 -124c3,-3 4,-8 2,-12z"/>
   <path class="fil5" d="M554 361c-3,0 -6,-1 -8,-3l-184 -184 -184 184c-4,4 -12,4 -16,0 -4,-4 -4,-12 0,-16l192 -192c4,-4 12,-4 16,0l192 192c4,4 4,12 0,16 -2,2 -5,3 -8,3z"/>
   <circle class="fil6" cx="362" cy="350" r="68"/>
   <path class="fil4" d="M362 305c-6,0 -11,5 -11,11l0 23 -23 0c-6,0 -11,5 -11,11 0,6 5,11 11,11l34 0c6,0 11,-5 11,-11l0 -34c0,-6 -5,-11 -11,-11z"/>
   <path class="fil2" d="M531 424c0,-16 -13,-28 -28,-28 -16,0 -28,13 -28,28 0,2 0,4 1,6l-1 0 0 45 56 0 0 -45 -1 0c0,-2 1,-4 1,-6z"/>
   <path class="fil7" d="M503 384c-22,0 -40,18 -40,40l0 51c0,6 5,11 11,11l56 0c6,0 11,-5 11,-11l0 -51c0,-22 -18,-40 -40,-40zm0 23c9,0 17,8 17,17l0 6 -34 0 0 -6c0,-9 8,-17 17,-17zm-17 56l0 -11 34 0 0 11 -34 0z"/>
   <rect class="fil2" x="192" y="531" width="56.4973" height="67.7965"/>
   <path class="fil7" d="M249 520l-56 0c-6,0 -11,5 -11,11l0 68c0,6 5,11 11,11l56 0c6,0 11,-5 11,-11l0 -68c0,-6 -5,-11 -11,-11zm-11 23l0 11 -34 0 0 -11 34 0zm-34 45l0 -11 34 0 0 11 -34 0z"/>
   <rect class="fil2" x="90" y="531" width="56.4973" height="67.7965"/>
   <path class="fil7" d="M147 520l-56 0c-6,0 -11,5 -11,11l0 68c0,6 5,11 11,11l56 0c6,0 11,-5 11,-11l0 -68c0,-6 -5,-11 -11,-11zm-11 23l0 11 -34 0 0 -11 34 0zm-34 45l0 -11 34 0 0 11 -34 0z"/>
   <rect class="fil2" x="576" y="531" width="56.4973" height="67.7965"/>
   <path class="fil7" d="M633 520l-57 0c-6,0 -11,5 -11,11l0 68c0,6 5,11 11,11l57 0c6,0 11,-5 11,-11l0 -68c0,-6 -5,-11 -11,-11zm-11 23l0 11 -34 0 0 -11 34 0zm-34 45l0 -11 34 0 0 11 -34 0z"/>
   <rect class="fil2" x="474" y="531" width="56.4973" height="67.7965"/>
   <path class="fil7" d="M531 520l-56 0c-6,0 -11,5 -11,11l0 68c0,6 5,11 11,11l56 0c6,0 11,-5 11,-11l0 -68c0,-6 -5,-11 -11,-11zm-11 23l0 11 -34 0 0 -11 34 0zm-34 45l0 -11 34 0 0 11 -34 0z"/>
   <path class="fil2" d="M632 424c0,-16 -13,-28 -28,-28 -16,0 -28,13 -28,28 0,2 0,4 1,6l-1 0 0 45 57 0 0 -45 -1 0c0,-2 1,-4 1,-6z"/>
   <path class="fil7" d="M604 384c-22,0 -40,18 -40,40l0 51c0,6 5,11 11,11l56 0c6,0 11,-5 11,-11l0 -51c0,-22 -18,-40 -40,-40zm0 23c9,0 17,8 17,17l0 6 -34 0 0 -6c0,-9 8,-17 17,-17zm-17 56l0 -11 34 0 0 11 -34 0z"/>
   <path class="fil2" d="M146 424c0,-16 -13,-28 -28,-28 -16,0 -28,13 -28,28 0,2 0,4 1,6l-1 0 0 45 56 0 0 -45 -1 0c0,-2 1,-4 1,-6z"/>
   <path class="fil7" d="M118 384c-22,0 -40,18 -40,40l0 51c0,6 5,11 11,11l56 0c6,0 11,-5 11,-11l0 -51c0,-22 -18,-40 -40,-40zm0 23c9,0 17,8 17,17l0 6 -34 0 0 -6c0,-9 8,-17 17,-17zm-17 56l0 -11 34 0 0 11 -34 0z"/>
   <path class="fil2" d="M248 424c0,-16 -13,-28 -28,-28 -16,0 -28,13 -28,28 0,2 0,4 1,6l-1 0 0 45 56 0 0 -45 -1 0c0,-2 1,-4 1,-6z"/>
   <path class="fil7" d="M220 384c-22,0 -40,18 -40,40l0 51c0,6 5,11 11,11l57 0c6,0 11,-5 11,-11l0 -51c0,-22 -18,-40 -40,-40zm0 23c9,0 17,8 17,17l0 6 -34 0 0 -6c0,-9 8,-17 17,-17zm-17 56l0 -11 34 0 0 11 -34 0z"/>
   <path class="fil7" d="M362 429c-44,0 -79,-35 -79,-79 0,-44 35,-79 79,-79 44,0 79,35 79,79 0,44 -35,79 -79,79zm0 -136c-31,0 -56,25 -56,56 0,31 25,56 56,56 31,0 56,-25 56,-56 0,-31 -25,-56 -56,-56z"/>
   <path class="fil7" d="M407 463l-90 0c-19,0 -34,15 -34,34l0 158c0,6 5,11 11,11 6,0 11,-5 11,-11l0 -124 45 0 0 124 23 0 0 -124 46 0 0 124c0,6 5,11 11,11 6,0 11,-5 11,-11l0 -158c0,-19 -15,-34 -34,-34zm11 45l-113 0 0 -11c0,-6 5,-11 11,-11l90 0c6,0 11,5 11,11l0 11z"/>
   <path class="fil4" d="M712 667l-701 0c-6,0 -11,-5 -11,-11 0,-6 5,-11 11,-11l701 0c6,0 11,5 11,11 0,6 -5,11 -11,11z"/>
  </g>
 </g>
</svg>
